{
    "sourceFile": "public/views/default/account/login.blade.php",
    "activeCommit": 0,
    "commits": [
        {
            "activePatchIndex": 0,
            "patches": [
                {
                    "date": 1716452360431,
                    "content": "Index: \n===================================================================\n--- \n+++ \n"
                }
            ],
            "date": 1716452360431,
            "name": "Commit-0",
            "content": "@extends('default.layouts.app')\n@section('content')\n    <div class=\"container mx-auto\">\n        <div class=\"grid grid-cols-12 gap-4\">\n            <div class=\"md:col-start-5 md:col-span-4 col-span-12 p-4 mt-8\">\n                <h1 class=\"text-2xl\">ΕΙΣΟΔΟΣ</h1>\n                <form method=\"POST\" action=\"{{ route('login.user') }}\">\n                    @csrf\n                    <div class=\"mt-4\">\n                        <label class=\"block mb-2 text-indigo-500\" for=\"username\">Username</label>\n                        <input type=\"text\" placeholder=\"Email\" id=\"email\"\n                               class=\"w-full p-2 mb-6 text-indigo-700 border-b-2 border-indigo-500 outline-none focus:bg-gray-300\"\n                               name=\"email\" required autofocus>\n                        @if ($errors->has('email'))\n                            <span class=\"text-danger\">{{ $errors->first('email') }}</span>\n                        @endif\n                    </div>\n                    <div class=\"mb-4\">\n                        <label class=\"block mb-2 text-indigo-500\" for=\"password\">Password</label>\n                        <input type=\"password\" placeholder=\"Password\" id=\"password\"\n                               class=\"w-full p-2 mb-6 text-indigo-700 border-b-2 border-indigo-500 outline-none focus:bg-gray-300\"\n                               name=\"password\" required>\n                        @if ($errors->has('password'))\n                            <span class=\"text-danger\">{{ $errors->first('password') }}</span>\n                        @endif\n                    </div>\n                    <div>\n                        <button type=\"submits\"\n                                class=\"w-full bg-indigo-700 hover:bg-pink-700 text-white font-bold py-2 px-4 mb-6 rounded\">\n                            ΕΙΣΟΔΟΣ\n                        </button>\n                        ΕΓΓΡΑΦΗ\n                    </div>\n                </form>\n            </div>\n        </div>\n    </div>\n@endsection\n"
        }
    ]
}