{
    "sourceFile": "app/Http/Controllers/HomeController.php",
    "activeCommit": 0,
    "commits": [
        {
            "activePatchIndex": 4,
            "patches": [
                {
                    "date": 1716451819201,
                    "content": "Index: \n===================================================================\n--- \n+++ \n"
                },
                {
                    "date": 1716451829796,
                    "content": "Index: \n===================================================================\n--- \n+++ \n@@ -46,7 +46,7 @@\n \t\t// $latestMen =  \\App\\Models\\Category::find(613)->products()->take(6)->get();\n \t\t// $latestWhoman =  \\App\\Models\\Category::find(592)->products()->take(6)->get();\n \n \n-\t\treturn view($view, compact('latestWhoman', 'latestMen', 'latestChild'));\n+\t\treturn view($view);\n \t}\n }\n"
                },
                {
                    "date": 1716451855926,
                    "content": "Index: \n===================================================================\n--- \n+++ \n@@ -38,9 +38,9 @@\n \n \t\t\t$mobileSlider = \\App\\Models\\Slider::find(2)->images()->get();\n \t\t}\n \n-\t\t$view = 'eshoes.index';\n+\t\t$view = env('THEME_FOLDER', 'basic').'index';\n \n \t\t// $latestWhoman = Product::where('is_featured', 1)->take(8)->get();\n \t\t// $latestChild =  \\App\\Models\\Category::find(625)->products()->take(6)->get();\n \t\t// $latestMen =  \\App\\Models\\Category::find(613)->products()->take(6)->get();\n"
                },
                {
                    "date": 1716451863568,
                    "content": "Index: \n===================================================================\n--- \n+++ \n@@ -38,9 +38,9 @@\n \n \t\t\t$mobileSlider = \\App\\Models\\Slider::find(2)->images()->get();\n \t\t}\n \n-\t\t$view = env('THEME_FOLDER', 'basic') . 'index';\n+\t\t$view = env('THEME_FOLDER', '.basic') . 'index';\n \n \t\t// $latestWhoman = Product::where('is_featured', 1)->take(8)->get();\n \t\t// $latestChild =  \\App\\Models\\Category::find(625)->products()->take(6)->get();\n \t\t// $latestMen =  \\App\\Models\\Category::find(613)->products()->take(6)->get();\n"
                },
                {
                    "date": 1716451871910,
                    "content": "Index: \n===================================================================\n--- \n+++ \n@@ -38,9 +38,9 @@\n \n \t\t\t$mobileSlider = \\App\\Models\\Slider::find(2)->images()->get();\n \t\t}\n \n-\t\t$view = env('THEME_FOLDER', '.basic') . 'index';\n+\t\t$view = env('THEME_FOLDER', 'basic') . '.index';\n \n \t\t// $latestWhoman = Product::where('is_featured', 1)->take(8)->get();\n \t\t// $latestChild =  \\App\\Models\\Category::find(625)->products()->take(6)->get();\n \t\t// $latestMen =  \\App\\Models\\Category::find(613)->products()->take(6)->get();\n"
                }
            ],
            "date": 1716451819201,
            "name": "Commit-0",
            "content": "<?php\n\nnamespace App\\Http\\Controllers;\n\nuse App\\Models\\Product;\n\nclass HomeController extends Controller\n{\n\t/**\n\t * Create a new controller instance.\n\t *\n\t * @return void\n\t */\n\tpublic function __construct()\n\t{\n\t}\n\n\t/**\n\t * Show the application dashboard.\n\t *\n\t * @return \\Illuminate\\Contracts\\Support\\Renderable\n\t */\n\tpublic function index()\n\t{\n\t\t//        if (Slider::find(1)) {\n\t\t//            $slider = Slider::find(1)->with('images')->get();\n\t\t//        } else {\n\t\t//            $slider = [];\n\t\t//        }\n\t\t// return $view = \\Config::get('settings.theme') . '.index';\n\n\t\t$desktopSlider = \\App\\Models\\Slider::find(1);\n\t\tif ($desktopSlider) {\n\t\t\t$desktopSlider = \\App\\Models\\Slider::find(1)->images()->get();\n\t\t}\n\t\t$mobileSlider = \\App\\Models\\Slider::find(2);\n\t\tif ($mobileSlider) {\n\n\t\t\t$mobileSlider = \\App\\Models\\Slider::find(2)->images()->get();\n\t\t}\n\n\t\t$view = 'eshoes.index';\n\n\t\t// $latestWhoman = Product::where('is_featured', 1)->take(8)->get();\n\t\t// $latestChild =  \\App\\Models\\Category::find(625)->products()->take(6)->get();\n\t\t// $latestMen =  \\App\\Models\\Category::find(613)->products()->take(6)->get();\n\t\t// $latestWhoman =  \\App\\Models\\Category::find(592)->products()->take(6)->get();\n\n\n\t\treturn view($view, compact('latestWhoman', 'latestMen', 'latestChild'));\n\t}\n}\n"
        }
    ]
}